info face="Hadriatic Bold" size=60 bold=0 italic=0 charset="" unicode=0 stretchH=100 smooth=1 aa=1 padding=0,0,0,0 spacing=0,0
common lineHeight=55 base=44 scaleW=512 scaleH=256 pages=1 packed=0
page id=0 file="default_large.png"
chars count=94
char id=32   x=0     y=0     width=0     height=0     xoffset=0     yoffset=44    xadvance=19     page=0  chnl=0 
char id=36   x=0     y=0     width=20     height=51     xoffset=1     yoffset=3    xadvance=19     page=0  chnl=0 
char id=124   x=20     y=0     width=7     height=51     xoffset=1     yoffset=3    xadvance=7     page=0  chnl=0 
char id=106   x=27     y=0     width=18     height=38     xoffset=1     yoffset=13    xadvance=18     page=0  chnl=0 
char id=79   x=45     y=0     width=35     height=38     xoffset=1     yoffset=8    xadvance=35     page=0  chnl=0 
char id=74   x=80     y=0     width=18     height=38     xoffset=1     yoffset=13    xadvance=18     page=0  chnl=0 
char id=56   x=98     y=0     width=26     height=35     xoffset=1     yoffset=11    xadvance=26     page=0  chnl=0 
char id=38   x=124     y=0     width=36     height=34     xoffset=1     yoffset=12    xadvance=35     page=0  chnl=0 
char id=35   x=160     y=0     width=37     height=34     xoffset=1     yoffset=12    xadvance=36     page=0  chnl=0 
char id=64   x=197     y=0     width=32     height=34     xoffset=1     yoffset=12    xadvance=32     page=0  chnl=0 
char id=125   x=229     y=0     width=17     height=34     xoffset=1     yoffset=12    xadvance=17     page=0  chnl=0 
char id=123   x=246     y=0     width=17     height=34     xoffset=1     yoffset=12    xadvance=17     page=0  chnl=0 
char id=93   x=263     y=0     width=15     height=34     xoffset=1     yoffset=12    xadvance=15     page=0  chnl=0 
char id=41   x=278     y=0     width=17     height=34     xoffset=1     yoffset=12    xadvance=17     page=0  chnl=0 
char id=40   x=295     y=0     width=17     height=34     xoffset=1     yoffset=12    xadvance=17     page=0  chnl=0 
char id=33   x=312     y=0     width=8     height=34     xoffset=1     yoffset=12    xadvance=8     page=0  chnl=0 
char id=48   x=320     y=0     width=35     height=34     xoffset=1     yoffset=12    xadvance=35     page=0  chnl=0 
char id=54   x=355     y=0     width=29     height=34     xoffset=1     yoffset=12    xadvance=29     page=0  chnl=0 
char id=53   x=384     y=0     width=23     height=34     xoffset=1     yoffset=12    xadvance=23     page=0  chnl=0 
char id=49   x=407     y=0     width=7     height=34     xoffset=2     yoffset=12    xadvance=9     page=0  chnl=0 
char id=119   x=414     y=0     width=38     height=34     xoffset=1     yoffset=12    xadvance=38     page=0  chnl=0 
char id=115   x=452     y=0     width=20     height=34     xoffset=1     yoffset=12    xadvance=19     page=0  chnl=0 
char id=114   x=472     y=0     width=34     height=34     xoffset=1     yoffset=12    xadvance=34     page=0  chnl=0 
char id=111   x=0     y=51     width=35     height=34     xoffset=1     yoffset=12    xadvance=35     page=0  chnl=0 
char id=109   x=35     y=51     width=38     height=34     xoffset=1     yoffset=12    xadvance=38     page=0  chnl=0 
char id=103   x=73     y=51     width=29     height=34     xoffset=1     yoffset=12    xadvance=29     page=0  chnl=0 
char id=100   x=102     y=51     width=30     height=34     xoffset=1     yoffset=12    xadvance=30     page=0  chnl=0 
char id=99   x=132     y=51     width=30     height=34     xoffset=1     yoffset=12    xadvance=29     page=0  chnl=0 
char id=87   x=162     y=51     width=38     height=34     xoffset=1     yoffset=12    xadvance=38     page=0  chnl=0 
char id=83   x=200     y=51     width=20     height=34     xoffset=1     yoffset=12    xadvance=19     page=0  chnl=0 
char id=82   x=220     y=51     width=33     height=34     xoffset=1     yoffset=12    xadvance=33     page=0  chnl=0 
char id=77   x=253     y=51     width=37     height=34     xoffset=1     yoffset=12    xadvance=37     page=0  chnl=0 
char id=71   x=290     y=51     width=29     height=34     xoffset=1     yoffset=12    xadvance=29     page=0  chnl=0 
char id=68   x=319     y=51     width=30     height=34     xoffset=1     yoffset=12    xadvance=30     page=0  chnl=0 
char id=67   x=349     y=51     width=30     height=34     xoffset=1     yoffset=12    xadvance=29     page=0  chnl=0 
char id=94   x=379     y=51     width=37     height=33     xoffset=1     yoffset=13    xadvance=37     page=0  chnl=0 
char id=91   x=416     y=51     width=15     height=33     xoffset=1     yoffset=13    xadvance=15     page=0  chnl=0 
char id=63   x=431     y=51     width=18     height=33     xoffset=1     yoffset=12    xadvance=18     page=0  chnl=0 
char id=55   x=449     y=51     width=28     height=33     xoffset=1     yoffset=13    xadvance=28     page=0  chnl=0 
char id=52   x=477     y=51     width=27     height=33     xoffset=1     yoffset=12    xadvance=27     page=0  chnl=0 
char id=51   x=0     y=85     width=29     height=33     xoffset=1     yoffset=12    xadvance=29     page=0  chnl=0 
char id=50   x=29     y=85     width=23     height=33     xoffset=1     yoffset=12    xadvance=23     page=0  chnl=0 
char id=122   x=52     y=85     width=28     height=33     xoffset=1     yoffset=13    xadvance=28     page=0  chnl=0 
char id=118   x=80     y=85     width=37     height=33     xoffset=1     yoffset=13    xadvance=37     page=0  chnl=0 
char id=117   x=117     y=85     width=33     height=33     xoffset=0     yoffset=13    xadvance=32     page=0  chnl=0 
char id=113   x=150     y=85     width=37     height=33     xoffset=1     yoffset=13    xadvance=37     page=0  chnl=0 
char id=112   x=187     y=85     width=28     height=33     xoffset=1     yoffset=12    xadvance=28     page=0  chnl=0 
char id=110   x=215     y=85     width=34     height=33     xoffset=2     yoffset=13    xadvance=34     page=0  chnl=0 
char id=108   x=249     y=85     width=22     height=33     xoffset=1     yoffset=12    xadvance=21     page=0  chnl=0 
char id=105   x=271     y=85     width=7     height=33     xoffset=2     yoffset=12    xadvance=9     page=0  chnl=0 
char id=104   x=278     y=85     width=26     height=33     xoffset=1     yoffset=12    xadvance=26     page=0  chnl=0 
char id=102   x=304     y=85     width=23     height=33     xoffset=1     yoffset=12    xadvance=23     page=0  chnl=0 
char id=101   x=327     y=85     width=27     height=33     xoffset=1     yoffset=12    xadvance=27     page=0  chnl=0 
char id=98   x=354     y=85     width=28     height=33     xoffset=2     yoffset=13    xadvance=28     page=0  chnl=0 
char id=97   x=382     y=85     width=37     height=33     xoffset=1     yoffset=13    xadvance=37     page=0  chnl=0 
char id=90   x=419     y=85     width=28     height=33     xoffset=1     yoffset=13    xadvance=28     page=0  chnl=0 
char id=86   x=447     y=85     width=37     height=33     xoffset=1     yoffset=13    xadvance=37     page=0  chnl=0 
char id=85   x=0     y=118     width=33     height=33     xoffset=0     yoffset=13    xadvance=32     page=0  chnl=0 
char id=81   x=33     y=118     width=37     height=33     xoffset=1     yoffset=13    xadvance=37     page=0  chnl=0 
char id=80   x=70     y=118     width=28     height=33     xoffset=1     yoffset=12    xadvance=28     page=0  chnl=0 
char id=78   x=98     y=118     width=34     height=33     xoffset=2     yoffset=13    xadvance=34     page=0  chnl=0 
char id=76   x=132     y=118     width=22     height=33     xoffset=1     yoffset=12    xadvance=21     page=0  chnl=0 
char id=75   x=154     y=118     width=29     height=33     xoffset=1     yoffset=13    xadvance=29     page=0  chnl=0 
char id=72   x=183     y=118     width=26     height=33     xoffset=1     yoffset=12    xadvance=26     page=0  chnl=0 
char id=70   x=209     y=118     width=23     height=33     xoffset=1     yoffset=12    xadvance=23     page=0  chnl=0 
char id=69   x=232     y=118     width=27     height=33     xoffset=1     yoffset=12    xadvance=27     page=0  chnl=0 
char id=66   x=259     y=118     width=28     height=33     xoffset=2     yoffset=13    xadvance=28     page=0  chnl=0 
char id=65   x=287     y=118     width=37     height=33     xoffset=1     yoffset=13    xadvance=37     page=0  chnl=0 
char id=62   x=324     y=118     width=21     height=32     xoffset=-1     yoffset=14    xadvance=18     page=0  chnl=0 
char id=60   x=345     y=118     width=21     height=32     xoffset=0     yoffset=14    xadvance=19     page=0  chnl=0 
char id=57   x=366     y=118     width=28     height=32     xoffset=1     yoffset=13    xadvance=28     page=0  chnl=0 
char id=121   x=394     y=118     width=29     height=32     xoffset=1     yoffset=13    xadvance=29     page=0  chnl=0 
char id=120   x=423     y=118     width=35     height=32     xoffset=1     yoffset=14    xadvance=32     page=0  chnl=0 
char id=116   x=458     y=118     width=28     height=32     xoffset=1     yoffset=13    xadvance=28     page=0  chnl=0 
char id=107   x=0     y=151     width=29     height=32     xoffset=1     yoffset=13    xadvance=29     page=0  chnl=0 
char id=89   x=29     y=151     width=29     height=32     xoffset=1     yoffset=13    xadvance=29     page=0  chnl=0 
char id=88   x=58     y=151     width=35     height=32     xoffset=1     yoffset=14    xadvance=32     page=0  chnl=0 
char id=84   x=93     y=151     width=28     height=32     xoffset=1     yoffset=13    xadvance=28     page=0  chnl=0 
char id=73   x=121     y=151     width=28     height=32     xoffset=1     yoffset=13    xadvance=28     page=0  chnl=0 
char id=37   x=149     y=151     width=28     height=31     xoffset=1     yoffset=15    xadvance=28     page=0  chnl=0 
char id=92   x=177     y=151     width=16     height=31     xoffset=1     yoffset=15    xadvance=16     page=0  chnl=0 
char id=47   x=193     y=151     width=16     height=31     xoffset=1     yoffset=15    xadvance=16     page=0  chnl=0 
char id=59   x=209     y=151     width=9     height=25     xoffset=0     yoffset=25    xadvance=8     page=0  chnl=0 
char id=58   x=218     y=151     width=6     height=21     xoffset=2     yoffset=25    xadvance=7     page=0  chnl=0 
char id=43   x=224     y=151     width=19     height=18     xoffset=1     yoffset=20    xadvance=18     page=0  chnl=0 
char id=42   x=243     y=151     width=16     height=16     xoffset=1     yoffset=11    xadvance=15     page=0  chnl=0 
char id=61   x=259     y=151     width=24     height=12     xoffset=1     yoffset=25    xadvance=24     page=0  chnl=0 
char id=126   x=283     y=151     width=23     height=11     xoffset=1     yoffset=25    xadvance=23     page=0  chnl=0 
char id=96   x=306     y=151     width=9     height=11     xoffset=2     yoffset=15    xadvance=10     page=0  chnl=0 
char id=44   x=315     y=151     width=9     height=10     xoffset=0     yoffset=39    xadvance=8     page=0  chnl=0 
char id=39   x=324     y=151     width=6     height=10     xoffset=1     yoffset=16    xadvance=6     page=0  chnl=0 
char id=34   x=330     y=151     width=11     height=10     xoffset=1     yoffset=16    xadvance=11     page=0  chnl=0 
char id=46   x=341     y=151     width=6     height=6     xoffset=2     yoffset=40    xadvance=7     page=0  chnl=0 
char id=45   x=347     y=151     width=19     height=5     xoffset=1     yoffset=30    xadvance=18     page=0  chnl=0 
char id=95   x=366     y=151     width=25     height=4     xoffset=1     yoffset=43    xadvance=18     page=0  chnl=0 
kernings count=-1
